Starting NMTRAN
  
 WARNINGS AND ERRORS (IF ANY) FOR PROBLEM    1
             
 (WARNING  2) NM-TRAN INFERS THAT THE DATA ARE POPULATION.
Recompiling certain components
Building NONMEM Executable
Starting nonmem execution ...
License Registered to: Metrum Research Group (with RADAR5NM)
Expiration Date:    14 JUL 2022
Current Date:       22 DEC 2021
Days until program expires : 207


 First Order Conditional Estimation with Interaction
 MONITORING OF SEARCH:


0ITERATION NO.:    0    OBJECTIVE VALUE:   32146.8827795179        NO. OF FUNC. EVALS.:   8
 CUMULATIVE NO. OF FUNC. EVALS.:        8
 NPARAMETR:  5.0000E-01  3.5000E+00  1.0000E+00  4.0000E+00  2.0000E+00  2.0000E-01  2.0000E-01  2.0000E-01  5.0000E-02
 PARAMETER:  1.0000E-01  1.0000E-01  1.0000E-01  1.0000E-01  1.0000E-01  1.0000E-01  1.0000E-01  1.0000E-01  1.0000E-01
 GRADIENT:   1.6081E+03 -2.6129E+04 -8.0817E+02 -4.1258E+04  1.7468E+04 -9.4538E+01 -4.0996E+02  2.6498E+01  1.5489E+02

0ITERATION NO.:    1    OBJECTIVE VALUE:   31944.1703549024        NO. OF FUNC. EVALS.:  11
 CUMULATIVE NO. OF FUNC. EVALS.:       19
 NPARAMETR:  4.9854E-01  3.6662E+00  1.0015E+00  4.3000E+00  1.9365E+00  2.0001E-01  2.0003E-01  2.0000E-01  4.9997E-02
 PARAMETER:  9.9708E-02  1.0475E-01  1.0015E-01  1.0750E-01  9.6825E-02  1.0002E-01  1.0007E-01  9.9995E-02  9.9972E-02
 GRADIENT:   2.6237E+03 -1.3173E+04 -1.2549E+03  3.8812E+04  2.2114E+04 -2.2777E+02 -1.2445E+02 -1.8709E+00  9.3792E+01

0ITERATION NO.:    2    OBJECTIVE VALUE:   31868.1213202207        NO. OF FUNC. EVALS.:  11
 CUMULATIVE NO. OF FUNC. EVALS.:       30
 NPARAMETR:  4.9581E-01  3.7620E+00  1.0041E+00  3.9775E+00  1.8446E+00  2.0003E-01  2.0004E-01  2.0000E-01  4.9995E-02
 PARAMETER:  9.9163E-02  1.0749E-01  1.0041E-01  9.9438E-02  9.2231E-02  1.0006E-01  1.0010E-01  9.9996E-02  9.9952E-02
 GRADIENT:   1.0484E+03 -1.4416E+04 -8.3733E+02 -4.1667E+04  1.6605E+04 -4.3686E+01 -1.1577E+02  2.4083E+01  3.2276E+02

0ITERATION NO.:    3    OBJECTIVE VALUE:   31522.3323953609        NO. OF FUNC. EVALS.:  10
 CUMULATIVE NO. OF FUNC. EVALS.:       40
 NPARAMETR:  4.7956E-01  4.6139E+00  1.0226E+00  4.0590E+00  1.1606E+00  2.0012E-01  2.0013E-01  1.9999E-01  4.9959E-02
 PARAMETER:  9.5913E-02  1.3182E-01  1.0226E-01  1.0148E-01  5.8030E-02  1.0031E-01  1.0031E-01  9.9976E-02  9.9586E-02
 GRADIENT:  -4.4181E+02  2.6093E+04 -8.1863E+02 -1.2111E+04  2.2801E+03  1.7446E+01 -1.7450E+02  6.4239E+00  8.1159E+02

0ITERATION NO.:    4    OBJECTIVE VALUE:   31485.6954433356        NO. OF FUNC. EVALS.:  11
 CUMULATIVE NO. OF FUNC. EVALS.:       51
 NPARAMETR:  4.7214E-01  4.3282E+00  1.0389E+00  4.1198E+00  7.6425E-01  2.0017E-01  2.0022E-01  1.9999E-01  4.9879E-02
 PARAMETER:  9.4427E-02  1.2366E-01  1.0389E-01  1.0299E-01  3.8213E-02  1.0043E-01  1.0056E-01  9.9964E-02  9.8790E-02
 GRADIENT:  -8.3646E+02  7.9898E+03 -1.7401E+02  1.8281E+03 -1.0363E+04  1.3804E+01  1.0251E+02  2.2412E+00  7.0461E+02

0ITERATION NO.:    5    OBJECTIVE VALUE:   31476.3913775566        NO. OF FUNC. EVALS.:  11
 CUMULATIVE NO. OF FUNC. EVALS.:       62
 NPARAMETR:  4.6114E-01  4.3355E+00  1.1516E+00  4.1210E+00  7.7372E-01  2.0053E-01  1.9996E-01  1.9993E-01  4.8632E-02
 PARAMETER:  9.2228E-02  1.2387E-01  1.1516E-01  1.0303E-01  3.8686E-02  1.0133E-01  9.9909E-02  9.9830E-02  8.6126E-02
 GRADIENT:  -8.7492E+02  8.6271E+03  1.6912E+03  2.4873E+03 -1.0688E+04  1.2087E+01  9.8614E+01 -9.1007E-02  5.8318E+02

0ITERATION NO.:    6    OBJECTIVE VALUE:   31465.5593857831        NO. OF FUNC. EVALS.:  10
 CUMULATIVE NO. OF FUNC. EVALS.:       72
 NPARAMETR:  4.1909E-01  4.3444E+00  1.1192E+00  4.1216E+00  7.7543E-01  2.0197E-01  1.9901E-01  1.9974E-01  4.4365E-02
 PARAMETER:  8.3818E-02  1.2413E-01  1.1192E-01  1.0304E-01  3.8772E-02  1.0489E-01  9.7523E-02  9.9357E-02  4.0211E-02
 GRADIENT:  -1.0626E+03  9.8225E+03  1.2762E+03  2.9462E+03 -1.1568E+04  3.3607E+00  9.1108E+01  2.7916E+00  1.5209E+02

0ITERATION NO.:    7    OBJECTIVE VALUE:   31464.4313817617        NO. OF FUNC. EVALS.:  10
 CUMULATIVE NO. OF FUNC. EVALS.:       82
 NPARAMETR:  4.5368E-01  4.3475E+00  1.1183E+00  4.1193E+00  7.6505E-01  2.1101E-01  1.9678E-01  1.9840E-01  4.4183E-02
 PARAMETER:  9.0736E-02  1.2422E-01  1.1183E-01  1.0298E-01  3.8252E-02  1.2678E-01  9.1880E-02  9.5991E-02  3.8162E-02
 GRADIENT:  -9.2668E+02  9.8661E+03  1.2786E+03  3.0813E+03 -1.1576E+04  1.0192E+01  8.9643E+01  5.5824E-01  1.2699E+02

0ITERATION NO.:    8    OBJECTIVE VALUE:   31462.7034254709        NO. OF FUNC. EVALS.:   9
 CUMULATIVE NO. OF FUNC. EVALS.:       91
 NPARAMETR:  3.4175E-01  4.2890E+00  1.1166E+00  4.1653E+00  8.0974E-01  4.5150E-01  1.6161E-01  1.7692E-01  4.3792E-02
 PARAMETER:  6.8350E-02  1.2254E-01  1.1166E-01  1.0413E-01  4.0487E-02  5.0713E-01 -6.5770E-03  3.8685E-02  3.3711E-02
 GRADIENT:  -9.0484E+02  7.8469E+03  1.3058E+03  7.3561E+03 -1.1042E+04  6.1802E+01  5.5388E+01 -3.8392E+01  1.1989E+02

0ITERATION NO.:    9    OBJECTIVE VALUE:   31460.6230684918        NO. OF FUNC. EVALS.:   9
 CUMULATIVE NO. OF FUNC. EVALS.:      100
 NPARAMETR:  3.3292E-01  4.2938E+00  1.1173E+00  4.1696E+00  8.2725E-01  4.9933E-01  1.7488E-01  1.9512E-01  4.3619E-02
 PARAMETER:  6.6583E-02  1.2268E-01  1.1173E-01  1.0424E-01  4.1363E-02  5.5748E-01  3.2885E-02  8.7651E-02  3.1739E-02
 GRADIENT:  -8.6318E+02  7.9852E+03  1.2508E+03  7.4692E+03 -1.0641E+04  7.0429E+01  6.9656E+01 -6.7862E+00  1.1712E+02

0ITERATION NO.:   10    OBJECTIVE VALUE:   31453.3247838358        NO. OF FUNC. EVALS.:   9
 CUMULATIVE NO. OF FUNC. EVALS.:      109
 NPARAMETR:  3.2618E-01  4.3081E+00  1.1156E+00  4.1660E+00  8.6666E-01  5.0700E-01  2.1302E-01  1.6896E-01  4.3216E-02
 PARAMETER:  6.5235E-02  1.2309E-01  1.1156E-01  1.0415E-01  4.3333E-02  5.6509E-01  1.3154E-01  1.5672E-02  2.7091E-02
 GRADIENT:  -8.3463E+02  8.3043E+03  1.2490E+03  7.0416E+03 -9.9138E+03  7.3245E+01  1.0207E+02 -5.2013E+01  1.0485E+02

0ITERATION NO.:   11    OBJECTIVE VALUE:   31313.8577419681        NO. OF FUNC. EVALS.:  11
 CUMULATIVE NO. OF FUNC. EVALS.:      120
 NPARAMETR:  4.1216E-01  4.1401E+00  1.0833E+00  4.1133E+00  1.1060E+00  2.0795E-01  1.6135E-01  1.7899E-01  4.0424E-02
 PARAMETER:  8.2432E-02  1.1829E-01  1.0833E-01  1.0283E-01  5.5298E-02  1.1950E-01 -7.3791E-03  4.4517E-02 -6.2965E-03
 GRADIENT:  -4.6439E+02  1.5822E+03  4.6644E+02 -6.3667E+03 -2.9675E+03  1.7825E+01  4.2509E+01 -2.0737E+01 -8.5509E+01

0ITERATION NO.:   12    OBJECTIVE VALUE:   31305.9406802607        NO. OF FUNC. EVALS.:   9
 CUMULATIVE NO. OF FUNC. EVALS.:      129
 NPARAMETR:  4.4126E-01  4.1169E+00  1.0743E+00  4.1203E+00  1.1395E+00  1.8666E-01  1.4767E-01  1.8368E-01  4.0636E-02
 PARAMETER:  8.8252E-02  1.1762E-01  1.0743E-01  1.0301E-01  5.6973E-02  6.5488E-02 -5.1654E-02  5.7442E-02 -3.6897E-03
 GRADIENT:  -2.5388E+02  2.8446E+01  2.8514E+02 -6.0734E+03 -1.6916E+03  9.4981E+00  1.6440E+01 -1.3185E+01 -5.6303E+01

0ITERATION NO.:   13    OBJECTIVE VALUE:   31301.3403342999        NO. OF FUNC. EVALS.:   9
 CUMULATIVE NO. OF FUNC. EVALS.:      138
 NPARAMETR:  4.5243E-01  4.1112E+00  1.0642E+00  4.1388E+00  1.1793E+00  1.7798E-01  1.4345E-01  1.9002E-01  4.0923E-02
 PARAMETER:  9.0486E-02  1.1746E-01  1.0642E-01  1.0347E-01  5.8963E-02  4.1666E-02 -6.6149E-02  7.4396E-02 -1.6902E-04
 GRADIENT:  -9.5719E+01  2.8816E+01  9.1785E+01 -3.6930E+03 -3.0187E+02  4.6344E+00  6.7421E+00 -4.7257E+00 -2.4194E+01

0ITERATION NO.:   14    OBJECTIVE VALUE:   31300.7843111459        NO. OF FUNC. EVALS.:  10
 CUMULATIVE NO. OF FUNC. EVALS.:      148
 NPARAMETR:  4.5755E-01  4.1083E+00  1.0608E+00  4.1474E+00  1.1843E+00  1.7511E-01  1.4032E-01  1.9248E-01  4.1089E-02
 PARAMETER:  9.1509E-02  1.1738E-01  1.0608E-01  1.0369E-01  5.9213E-02  3.3542E-02 -7.7197E-02  8.0838E-02  1.8592E-03
 GRADIENT:  -4.7545E+01 -1.8714E+02  3.4090E+01 -2.2701E+03 -1.4832E+02  3.1777E+00  5.3217E-01 -1.9424E+00 -6.7728E+00

0ITERATION NO.:   15    OBJECTIVE VALUE:   31300.1808761543        NO. OF FUNC. EVALS.:   9
 CUMULATIVE NO. OF FUNC. EVALS.:      157
 NPARAMETR:  4.6638E-01  4.1112E+00  1.0572E+00  4.1620E+00  1.1947E+00  1.6768E-01  1.4040E-01  1.9584E-01  4.1241E-02
 PARAMETER:  9.3275E-02  1.1746E-01  1.0572E-01  1.0405E-01  5.9737E-02  1.1877E-02 -7.6901E-02  8.9498E-02  3.7098E-03
 GRADIENT:   3.7266E+01  1.8729E+02 -2.6093E+01  2.3143E+02  2.5766E+02 -1.4356E+00  1.6776E+00  1.5187E+00  2.1203E+00

0ITERATION NO.:   16    OBJECTIVE VALUE:   31300.1808761543        NO. OF FUNC. EVALS.:  22
 CUMULATIVE NO. OF FUNC. EVALS.:      179
 NPARAMETR:  4.6638E-01  4.1112E+00  1.0572E+00  4.1620E+00  1.1947E+00  1.6768E-01  1.4040E-01  1.9584E-01  4.1241E-02
 PARAMETER:  9.3275E-02  1.1746E-01  1.0572E-01  1.0405E-01  5.9737E-02  1.1877E-02 -7.6901E-02  8.9498E-02  3.7098E-03
 GRADIENT:   3.3367E+01 -2.7002E+03 -7.9924E+02 -3.6706E+02  1.8708E+02 -1.4356E+00  1.6776E+00  1.5187E+00  1.4921E+00

0ITERATION NO.:   17    OBJECTIVE VALUE:   31296.9357654371        NO. OF FUNC. EVALS.:  21
 CUMULATIVE NO. OF FUNC. EVALS.:      200
 NPARAMETR:  4.7534E-01  4.1404E+00  1.0955E+00  4.1575E+00  1.1897E+00  1.6674E-01  1.3965E-01  1.9730E-01  4.1417E-02
 PARAMETER:  9.5068E-02  1.1830E-01  1.0955E-01  1.0394E-01  5.9483E-02  9.0579E-03 -7.9593E-02  9.3214E-02  5.8352E-03
 GRADIENT:   3.0686E+01 -7.4013E+02 -1.8768E+02 -6.8938E+02  2.7050E+02 -1.8631E+00  3.7239E+00  7.5130E+00  1.3453E+01

0ITERATION NO.:   18    OBJECTIVE VALUE:   31296.5797761331        NO. OF FUNC. EVALS.:  19
 CUMULATIVE NO. OF FUNC. EVALS.:      219
 NPARAMETR:  4.7204E-01  4.1515E+00  1.1077E+00  4.1599E+00  1.1839E+00  1.7209E-01  1.3565E-01  1.9315E-01  4.1380E-02
 PARAMETER:  9.4407E-02  1.1861E-01  1.1077E-01  1.0400E-01  5.9196E-02  2.4844E-02 -9.4133E-02  8.2576E-02  5.3912E-03
 GRADIENT:  -1.0470E+01  4.7055E+01  1.2165E+01 -4.5460E+01  7.5748E+01  1.4705E+00 -3.6971E+00  9.6862E-01  5.6940E+00

0ITERATION NO.:   19    OBJECTIVE VALUE:   31296.5581778558        NO. OF FUNC. EVALS.:  19
 CUMULATIVE NO. OF FUNC. EVALS.:      238
 NPARAMETR:  4.7751E-01  4.1524E+00  1.1071E+00  4.1587E+00  1.1807E+00  1.6899E-01  1.3708E-01  1.9236E-01  4.1355E-02
 PARAMETER:  9.5501E-02  1.1864E-01  1.1071E-01  1.0397E-01  5.9035E-02  1.5752E-02 -8.8880E-02  8.0526E-02  5.0895E-03
 GRADIENT:   9.2132E+00  3.4721E+01  4.8740E+00 -1.2788E+02  1.1449E+01 -4.6244E-01 -3.0337E-01 -3.0035E-01  1.8322E+00

0ITERATION NO.:   20    OBJECTIVE VALUE:   31296.5535183527        NO. OF FUNC. EVALS.:  19
 CUMULATIVE NO. OF FUNC. EVALS.:      257
 NPARAMETR:  4.7527E-01  4.1515E+00  1.1067E+00  4.1595E+00  1.1816E+00  1.6985E-01  1.3727E-01  1.9263E-01  4.1339E-02
 PARAMETER:  9.5054E-02  1.1861E-01  1.1067E-01  1.0399E-01  5.9080E-02  1.8291E-02 -8.8190E-02  8.1226E-02  4.8899E-03
 GRADIENT:   1.9524E+00  8.3684E-01 -1.0608E+00 -3.5909E+01  1.3039E+01  4.6122E-02 -9.9140E-02  8.9105E-02  2.3865E-01

0ITERATION NO.:   21    OBJECTIVE VALUE:   31296.5532482793        NO. OF FUNC. EVALS.:  21
 CUMULATIVE NO. OF FUNC. EVALS.:      278            RESET HESSIAN, TYPE II
 NPARAMETR:  4.7482E-01  4.1516E+00  1.1069E+00  4.1597E+00  1.1813E+00  1.6979E-01  1.3732E-01  1.9258E-01  4.1337E-02
 PARAMETER:  9.4965E-02  1.1862E-01  1.1069E-01  1.0399E-01  5.9063E-02  1.8118E-02 -8.8005E-02  8.1091E-02  4.8665E-03
 GRADIENT:   3.3831E+00  2.9498E+03  8.1072E+02  5.8968E+02  6.5857E+01  6.6186E-02  3.2831E-02 -2.0245E-02  5.3517E-01

0ITERATION NO.:   22    OBJECTIVE VALUE:   31296.5532482793        NO. OF FUNC. EVALS.:  17
 CUMULATIVE NO. OF FUNC. EVALS.:      295
 NPARAMETR:  4.7482E-01  4.1516E+00  1.1069E+00  4.1597E+00  1.1813E+00  1.6979E-01  1.3732E-01  1.9258E-01  4.1337E-02
 PARAMETER:  9.4965E-02  1.1862E-01  1.1069E-01  1.0399E-01  5.9063E-02  1.8118E-02 -8.8005E-02  8.1091E-02  4.8665E-03
 GRADIENT:  -4.6097E-01  9.6318E+00  2.1910E+00  2.2750E+00 -4.7431E+00  6.6186E-02  3.2831E-02 -2.0245E-02 -9.3244E-02

0ITERATION NO.:   23    OBJECTIVE VALUE:   31296.5532253316        NO. OF FUNC. EVALS.:  19
 CUMULATIVE NO. OF FUNC. EVALS.:      314
 NPARAMETR:  4.7493E-01  4.1516E+00  1.1069E+00  4.1597E+00  1.1814E+00  1.6969E-01  1.3730E-01  1.9259E-01  4.1338E-02
 PARAMETER:  9.4987E-02  1.1862E-01  1.1069E-01  1.0399E-01  5.9070E-02  1.7828E-02 -8.8078E-02  8.1132E-02  4.8759E-03
 GRADIENT:   4.1426E-01  9.3534E+00  2.2348E+00  2.6112E-01  1.4558E+00  7.5187E-03 -1.0026E-02  7.0225E-03 -5.3705E-02

0ITERATION NO.:   24    OBJECTIVE VALUE:   31296.5532253316        NO. OF FUNC. EVALS.:  12
 CUMULATIVE NO. OF FUNC. EVALS.:      326
 NPARAMETR:  4.7493E-01  4.1516E+00  1.1069E+00  4.1597E+00  1.1814E+00  1.6969E-01  1.3730E-01  1.9259E-01  4.1338E-02
 PARAMETER:  9.4987E-02  1.1862E-01  1.1069E-01  1.0399E-01  5.9070E-02  1.7828E-02 -8.8078E-02  8.1132E-02  4.8759E-03
 GRADIENT:   4.1426E-01  9.3534E+00  2.2348E+00  2.6112E-01  1.4558E+00  7.5187E-03 -1.0026E-02  7.0225E-03 -5.3705E-02
 Elapsed estimation  time in seconds:    12.00
 Elapsed covariance  time in seconds:     7.60
 Elapsed postprocess time in seconds:     1.43
 Elapsed finaloutput time in seconds:     0.21
Done with nonmem execution
